,Pore y,YSZ x,Pore x,LSM y,Pore z,LSM x,YSZ z,LSM z,YSZ y
Neg. CI,0.0,0.0,0.0,0.001,0.0,0.026,0.001,0.013,0.0
Pos. CI,0.0,0.0,0.0,0.001,0.0,0.028,0.001,0.014,0.0
Mean,1.02,1.07,1.018,1.143,1.039,1.4,1.12,1.562,1.063
Std. Dev.,0.001,0.003,0.002,0.009,0.001,0.169,0.006,0.055,0.003
SEM,0.0,0.0,0.0,0.001,0.0,0.014,0.001,0.007,0.0
