,Pore y,YSZ x,Pore x,LSM y,Pore z,LSM x,YSZ z,LSM z,YSZ y
0,1.02,1.064,1.014,1.132,1.04,1.676,1.128,1.679,1.064
1,1.02,1.064,1.014,1.132,1.04,1.679,1.127,1.673,1.064
2,1.02,1.064,1.014,1.132,1.04,1.682,1.127,1.666,1.064
3,1.02,1.065,1.014,1.132,1.041,1.685,1.127,1.66,1.064
4,1.021,1.065,1.014,1.132,1.041,1.688,1.128,1.653,1.065
